Diamonds
…
According to the plot, the most preferred carat is 0.3 and the 10th carat is 0.71.

And in the below table; total numbers, min prices, average prices, and max prices are shown of diamonds ordered by carats.

diamonds %>%
  group_by(carat) %>%
  summarise(TotalNumber = n(),
            MinPrice = min(price),
            AveragePrice = mean(price),
            MaxPrice = max(price))

## # A tibble: 273 x 5
##    carat TotalNumber MinPrice AveragePrice MaxPrice
##    <dbl>       <int>    <int>        <dbl>    <int>
##  1 0.2            12      345         365.      367
##  2 0.21            9      326         380.      394
##  3 0.22            5      337         391.      470
##  4 0.23          293      326         486.      688
##  5 0.24          254      336         505.      963
##  6 0.25          212      357         551.     1186
##  7 0.26          253      337         551.      814
##  8 0.27          233      361         575.      893
##  9 0.28          198      360         580.      828
## 10 0.290         130      334         601.     1776
## # ... with 263 more rows
…
set.seed(503)

diamonds_test <- diamonds %>% mutate(diamond_id = row_number()) %>% 
    group_by(cut, color, clarity) %>% sample_frac(0.2) %>% ungroup()

diamonds_train <- anti_join(diamonds %>% mutate(diamond_id = row_number()), 
    diamonds_test, by = "diamond_id")

diamonds_train = diamonds_train[, c(-ncol(diamonds_train))]
diamonds_test = diamonds_test[, c(-ncol(diamonds_test))]

diamonds_train

## # A tibble: 43,143 x 10
##    carat cut       color clarity depth table price     x     y     z
##    <dbl> <ord>     <ord> <ord>   <dbl> <dbl> <int> <dbl> <dbl> <dbl>
##  1 0.21  Premium   E     SI1      59.8    61   326  3.89  3.84  2.31
##  2 0.23  Good      E     VS1      56.9    65   327  4.05  4.07  2.31
##  3 0.290 Premium   I     VS2      62.4    58   334  4.2   4.23  2.63
##  4 0.31  Good      J     SI2      63.3    58   335  4.34  4.35  2.75
##  5 0.24  Very Good I     VVS1     62.3    57   336  3.95  3.98  2.47
##  6 0.26  Very Good H     SI1      61.9    55   337  4.07  4.11  2.53
##  7 0.22  Fair      E     VS2      65.1    61   337  3.87  3.78  2.49
##  8 0.23  Very Good H     VS1      59.4    61   338  4     4.05  2.39
##  9 0.3   Good      J     SI1      64      55   339  4.25  4.28  2.73
## 10 0.23  Ideal     J     VS1      62.8    56   340  3.93  3.9   2.46
## # ... with 43,133 more rows

And, the second table includes a sample from test data set.

diamonds_test

## # A tibble: 10,797 x 10
##    carat cut   color clarity depth table price     x     y     z
##    <dbl> <ord> <ord> <ord>   <dbl> <dbl> <int> <dbl> <dbl> <dbl>
##  1 1.7   Fair  D     I1       64.7    56  5617  7.46  7.37  4.8 
##  2 0.580 Fair  D     SI2      65.1    58  1156  5.25  5.22  3.41
##  3 1     Fair  D     SI2      65.6    66  3767  6.1   6.01  3.97
##  4 1.05  Fair  D     SI2      65.4    59  3816  6.3   6.24  4.1 
##  5 0.7   Fair  D     SI2      64.5    60  2167  5.53  5.47  3.55
##  6 0.9   Fair  D     SI2      64.6    59  3847  6.04  6.01  3.89
##  7 1.01  Fair  D     SI2      64.6    56  3003  6.31  6.24  4.05
##  8 1.1   Fair  D     SI2      64.6    54  4725  6.56  6.49  4.22
##  9 0.62  Fair  D     SI2      64.6    57  1410  5.39  5.33  3.46
## 10 1.5   Fair  D     SI2      68.8    57  7469  6.9   6.86  4.73
## # ... with 10,787 more rows
…
